%YAML 1.1
%TAG !u! tag:unity3d.com,2011:
--- !u!74 &7400000
AnimationClip:
  m_ObjectHideFlags: 0
  m_PrefabParentObject: {fileID: 0}
  m_PrefabInternal: {fileID: 0}
  m_Name: UFO_Flying
  serializedVersion: 6
  m_Legacy: 0
  m_Compressed: 0
  m_UseHighQualityCurve: 1
  m_RotationCurves: []
  m_CompressedRotationCurves: []
  m_EulerCurves: []
  m_PositionCurves: []
  m_ScaleCurves: []
  m_FloatCurves: []
  m_PPtrCurves:
  - curve:
    - time: 0
      value: {fileID: 21300000, guid: 902aee50e409c2843bb82bf55a8086e6, type: 3}
    - time: 0.125
      value: {fileID: 21300000, guid: 509d3d4aed5a1d6469a0344f7aa9ee46, type: 3}
    - time: 0.25
      value: {fileID: 21300000, guid: aa6e2632a74909849a63190c0f8fe6e5, type: 3}
    - time: 0.375
      value: {fileID: 21300000, guid: 3a3511261d20c4c468a1e9f4464f9cfc, type: 3}
    - time: 0.5
      value: {fileID: 21300000, guid: acdde4815a73a09449f9582f2929584b, type: 3}
    - time: 0.625
      value: {fileID: 21300000, guid: a176ab052a7062f4db911fe4c44a367a, type: 3}
    - time: 0.75
      value: {fileID: 21300000, guid: dc7f66c7bf976664db7992f84d3a3277, type: 3}
    - time: 0.875
      value: {fileID: 21300000, guid: 43a71e0822390d2468b3a5dbfcba10fc, type: 3}
    - time: 1
      value: {fileID: 21300000, guid: 0976878dc816aa044b91fe4a2804573b, type: 3}
    - time: 1.125
      value: {fileID: 21300000, guid: 8bbab72742be79d4684844ff646fd972, type: 3}
    - time: 1.25
      value: {fileID: 21300000, guid: 8666b752ec6c67f4d83b414b70a80559, type: 3}
    - time: 1.375
      value: {fileID: 21300000, guid: acfa009021a644c4098ff0587c551069, type: 3}
    attribute: m_Sprite
    path: 
    classID: 212
    script: {fileID: 0}
  m_SampleRate: 8
  m_WrapMode: 0
  m_Bounds:
    m_Center: {x: 0, y: 0, z: 0}
    m_Extent: {x: 0, y: 0, z: 0}
  m_ClipBindingConstant:
    genericBindings:
    - path: 0
      attribute: 0
      script: {fileID: 0}
      classID: 212
      customType: 23
      isPPtrCurve: 1
    pptrCurveMapping:
    - {fileID: 21300000, guid: 902aee50e409c2843bb82bf55a8086e6, type: 3}
    - {fileID: 21300000, guid: 509d3d4aed5a1d6469a0344f7aa9ee46, type: 3}
    - {fileID: 21300000, guid: aa6e2632a74909849a63190c0f8fe6e5, type: 3}
    - {fileID: 21300000, guid: 3a3511261d20c4c468a1e9f4464f9cfc, type: 3}
    - {fileID: 21300000, guid: acdde4815a73a09449f9582f2929584b, type: 3}
    - {fileID: 21300000, guid: a176ab052a7062f4db911fe4c44a367a, type: 3}
    - {fileID: 21300000, guid: dc7f66c7bf976664db7992f84d3a3277, type: 3}
    - {fileID: 21300000, guid: 43a71e0822390d2468b3a5dbfcba10fc, type: 3}
    - {fileID: 21300000, guid: 0976878dc816aa044b91fe4a2804573b, type: 3}
    - {fileID: 21300000, guid: 8bbab72742be79d4684844ff646fd972, type: 3}
    - {fileID: 21300000, guid: 8666b752ec6c67f4d83b414b70a80559, type: 3}
    - {fileID: 21300000, guid: acfa009021a644c4098ff0587c551069, type: 3}
  m_AnimationClipSettings:
    serializedVersion: 2
    m_AdditiveReferencePoseClip: {fileID: 0}
    m_AdditiveReferencePoseTime: 0
    m_StartTime: 0
    m_StopTime: 1.5
    m_OrientationOffsetY: 0
    m_Level: 0
    m_CycleOffset: 0
    m_HasAdditiveReferencePose: 0
    m_LoopTime: 1
    m_LoopBlend: 0
    m_LoopBlendOrientation: 0
    m_LoopBlendPositionY: 0
    m_LoopBlendPositionXZ: 0
    m_KeepOriginalOrientation: 0
    m_KeepOriginalPositionY: 1
    m_KeepOriginalPositionXZ: 0
    m_HeightFromFeet: 0
    m_Mirror: 0
  m_EditorCurves: []
  m_EulerEditorCurves: []
  m_HasGenericRootTransform: 0
  m_HasMotionFloatCurves: 0
  m_GenerateMotionCurves: 0
  m_Events: []
