%YAML 1.1
%TAG !u! tag:unity3d.com,2011:
--- !u!74 &7400000
AnimationClip:
  m_ObjectHideFlags: 0
  m_PrefabParentObject: {fileID: 0}
  m_PrefabInternal: {fileID: 0}
  m_Name: BossExplosion
  serializedVersion: 6
  m_Legacy: 0
  m_Compressed: 0
  m_UseHighQualityCurve: 1
  m_RotationCurves: []
  m_CompressedRotationCurves: []
  m_EulerCurves: []
  m_PositionCurves: []
  m_ScaleCurves: []
  m_FloatCurves: []
  m_PPtrCurves:
  - curve:
    - time: 0
      value: {fileID: 21300000, guid: ffe41fd8d9bb0894cac599d74667c560, type: 3}
    - time: 0.06666667
      value: {fileID: 21300000, guid: 25ccc201cdab14b408ee20a735098594, type: 3}
    - time: 0.13333334
      value: {fileID: 21300000, guid: a3083d6f2b1db674db803ea1206e2884, type: 3}
    - time: 0.2
      value: {fileID: 21300000, guid: 590a0b01a884d214f871d318164554c7, type: 3}
    - time: 0.26666668
      value: {fileID: 21300000, guid: f582524ff0a1f654e8658eb975728f67, type: 3}
    - time: 0.33333334
      value: {fileID: 21300000, guid: faab63b4c17179d478248600fcf486ac, type: 3}
    - time: 0.4
      value: {fileID: 21300000, guid: b18babdcb40006e43be83a23eb93f99a, type: 3}
    - time: 0.46666667
      value: {fileID: 21300000, guid: 12d43706093703847930b40df3a304f7, type: 3}
    - time: 0.53333336
      value: {fileID: 21300000, guid: c776bb9bcd5563f47921aac98146b94a, type: 3}
    - time: 0.6
      value: {fileID: 21300000, guid: 9690bc0a592d99c4895dd7faebdebd47, type: 3}
    - time: 0.6666667
      value: {fileID: 21300000, guid: 972e22c715b4461468419c8a999068a4, type: 3}
    - time: 0.73333335
      value: {fileID: 21300000, guid: 5e18572111d4f4940b327d230f8c9ef2, type: 3}
    - time: 0.8
      value: {fileID: 21300000, guid: f4f3e424b9bb5cb4c8a075fe1dd7a2b8, type: 3}
    - time: 0.8666667
      value: {fileID: 21300000, guid: faf4b0c574990c04eaeb80af66c15aef, type: 3}
    - time: 0.93333334
      value: {fileID: 21300000, guid: 4b2173d2580cce84e8037ef2dcf16207, type: 3}
    - time: 1
      value: {fileID: 21300000, guid: e058befc0cea75c448abd32d1507b08f, type: 3}
    - time: 1.0666667
      value: {fileID: 21300000, guid: 3a5d22b093708fb439b7116463a9cd90, type: 3}
    - time: 1.1333333
      value: {fileID: 21300000, guid: 7809dbc6b970e144984eec2de114c2d9, type: 3}
    - time: 1.2
      value: {fileID: 21300000, guid: 56fbff8b6a3744149ab0a40a9419be10, type: 3}
    - time: 1.2666667
      value: {fileID: 21300000, guid: 6ca6de13c89486549b8565a5cede4fe8, type: 3}
    - time: 1.3333334
      value: {fileID: 21300000, guid: a91e21db5139ae84cb73ce05e6c76bbf, type: 3}
    - time: 1.4
      value: {fileID: 21300000, guid: fa27c6f2a34749b47a340a3cd49f82b8, type: 3}
    - time: 1.4666667
      value: {fileID: 21300000, guid: 0c5389b4c114a774bb1e0336bf7b9936, type: 3}
    - time: 1.5333333
      value: {fileID: 21300000, guid: 965207b936acf2b4689c1044f2efd455, type: 3}
    - time: 1.6
      value: {fileID: 21300000, guid: bc2d5d5069f2bd84299925526a657d5c, type: 3}
    - time: 1.6666666
      value: {fileID: 21300000, guid: 8a708ea687e22f943bcf4b278d74382c, type: 3}
    - time: 1.7333333
      value: {fileID: 21300000, guid: 6dd13e23734617644aa18eb083b1662d, type: 3}
    attribute: m_Sprite
    path: 
    classID: 212
    script: {fileID: 0}
  m_SampleRate: 15
  m_WrapMode: 0
  m_Bounds:
    m_Center: {x: 0, y: 0, z: 0}
    m_Extent: {x: 0, y: 0, z: 0}
  m_ClipBindingConstant:
    genericBindings:
    - path: 0
      attribute: 0
      script: {fileID: 0}
      classID: 212
      customType: 23
      isPPtrCurve: 1
    pptrCurveMapping:
    - {fileID: 21300000, guid: ffe41fd8d9bb0894cac599d74667c560, type: 3}
    - {fileID: 21300000, guid: 25ccc201cdab14b408ee20a735098594, type: 3}
    - {fileID: 21300000, guid: a3083d6f2b1db674db803ea1206e2884, type: 3}
    - {fileID: 21300000, guid: 590a0b01a884d214f871d318164554c7, type: 3}
    - {fileID: 21300000, guid: f582524ff0a1f654e8658eb975728f67, type: 3}
    - {fileID: 21300000, guid: faab63b4c17179d478248600fcf486ac, type: 3}
    - {fileID: 21300000, guid: b18babdcb40006e43be83a23eb93f99a, type: 3}
    - {fileID: 21300000, guid: 12d43706093703847930b40df3a304f7, type: 3}
    - {fileID: 21300000, guid: c776bb9bcd5563f47921aac98146b94a, type: 3}
    - {fileID: 21300000, guid: 9690bc0a592d99c4895dd7faebdebd47, type: 3}
    - {fileID: 21300000, guid: 972e22c715b4461468419c8a999068a4, type: 3}
    - {fileID: 21300000, guid: 5e18572111d4f4940b327d230f8c9ef2, type: 3}
    - {fileID: 21300000, guid: f4f3e424b9bb5cb4c8a075fe1dd7a2b8, type: 3}
    - {fileID: 21300000, guid: faf4b0c574990c04eaeb80af66c15aef, type: 3}
    - {fileID: 21300000, guid: 4b2173d2580cce84e8037ef2dcf16207, type: 3}
    - {fileID: 21300000, guid: e058befc0cea75c448abd32d1507b08f, type: 3}
    - {fileID: 21300000, guid: 3a5d22b093708fb439b7116463a9cd90, type: 3}
    - {fileID: 21300000, guid: 7809dbc6b970e144984eec2de114c2d9, type: 3}
    - {fileID: 21300000, guid: 56fbff8b6a3744149ab0a40a9419be10, type: 3}
    - {fileID: 21300000, guid: 6ca6de13c89486549b8565a5cede4fe8, type: 3}
    - {fileID: 21300000, guid: a91e21db5139ae84cb73ce05e6c76bbf, type: 3}
    - {fileID: 21300000, guid: fa27c6f2a34749b47a340a3cd49f82b8, type: 3}
    - {fileID: 21300000, guid: 0c5389b4c114a774bb1e0336bf7b9936, type: 3}
    - {fileID: 21300000, guid: 965207b936acf2b4689c1044f2efd455, type: 3}
    - {fileID: 21300000, guid: bc2d5d5069f2bd84299925526a657d5c, type: 3}
    - {fileID: 21300000, guid: 8a708ea687e22f943bcf4b278d74382c, type: 3}
    - {fileID: 21300000, guid: 6dd13e23734617644aa18eb083b1662d, type: 3}
  m_AnimationClipSettings:
    serializedVersion: 2
    m_AdditiveReferencePoseClip: {fileID: 0}
    m_AdditiveReferencePoseTime: 0
    m_StartTime: 0
    m_StopTime: 1.8000001
    m_OrientationOffsetY: 0
    m_Level: 0
    m_CycleOffset: 0
    m_HasAdditiveReferencePose: 0
    m_LoopTime: 1
    m_LoopBlend: 0
    m_LoopBlendOrientation: 0
    m_LoopBlendPositionY: 0
    m_LoopBlendPositionXZ: 0
    m_KeepOriginalOrientation: 0
    m_KeepOriginalPositionY: 1
    m_KeepOriginalPositionXZ: 0
    m_HeightFromFeet: 0
    m_Mirror: 0
  m_EditorCurves: []
  m_EulerEditorCurves: []
  m_HasGenericRootTransform: 0
  m_HasMotionFloatCurves: 0
  m_GenerateMotionCurves: 0
  m_Events:
  - time: 1.5333333
    functionName: OnAnimationFinish
    data: 
    objectReferenceParameter: {fileID: 0}
    floatParameter: 0
    intParameter: 0
    messageOptions: 0
