%YAML 1.1
%TAG !u! tag:unity3d.com,2011:
--- !u!74 &7400000
AnimationClip:
  m_ObjectHideFlags: 0
  m_PrefabParentObject: {fileID: 0}
  m_PrefabInternal: {fileID: 0}
  m_Name: TurretWakeUp
  serializedVersion: 6
  m_Legacy: 0
  m_Compressed: 0
  m_UseHighQualityCurve: 1
  m_RotationCurves: []
  m_CompressedRotationCurves: []
  m_EulerCurves: []
  m_PositionCurves: []
  m_ScaleCurves: []
  m_FloatCurves: []
  m_PPtrCurves:
  - curve:
    - time: 0
      value: {fileID: 21300000, guid: c02656e8e98325a4bae78427eae5c235, type: 3}
    - time: 0.0625
      value: {fileID: 21300002, guid: c02656e8e98325a4bae78427eae5c235, type: 3}
    - time: 0.125
      value: {fileID: 21300004, guid: c02656e8e98325a4bae78427eae5c235, type: 3}
    - time: 0.1875
      value: {fileID: 21300006, guid: c02656e8e98325a4bae78427eae5c235, type: 3}
    - time: 0.25
      value: {fileID: 21300008, guid: c02656e8e98325a4bae78427eae5c235, type: 3}
    - time: 0.3125
      value: {fileID: 21300010, guid: c02656e8e98325a4bae78427eae5c235, type: 3}
    - time: 0.375
      value: {fileID: 21300012, guid: c02656e8e98325a4bae78427eae5c235, type: 3}
    - time: 0.4375
      value: {fileID: 21300014, guid: c02656e8e98325a4bae78427eae5c235, type: 3}
    - time: 0.5
      value: {fileID: 21300016, guid: c02656e8e98325a4bae78427eae5c235, type: 3}
    - time: 0.5625
      value: {fileID: 21300018, guid: c02656e8e98325a4bae78427eae5c235, type: 3}
    - time: 0.625
      value: {fileID: 21300020, guid: c02656e8e98325a4bae78427eae5c235, type: 3}
    - time: 0.6875
      value: {fileID: 21300022, guid: c02656e8e98325a4bae78427eae5c235, type: 3}
    - time: 0.75
      value: {fileID: 21300024, guid: c02656e8e98325a4bae78427eae5c235, type: 3}
    - time: 0.8125
      value: {fileID: 21300026, guid: c02656e8e98325a4bae78427eae5c235, type: 3}
    - time: 0.875
      value: {fileID: 21300028, guid: c02656e8e98325a4bae78427eae5c235, type: 3}
    - time: 0.9375
      value: {fileID: 21300030, guid: c02656e8e98325a4bae78427eae5c235, type: 3}
    - time: 1
      value: {fileID: 21300032, guid: c02656e8e98325a4bae78427eae5c235, type: 3}
    - time: 1.5
      value: {fileID: 21300000, guid: d9f9918442246c54b849763e6e4df3f0, type: 3}
    - time: 1.5625
      value: {fileID: 21300000, guid: c4f4fc9e2ebba2d4ea599707ca2637de, type: 3}
    - time: 1.625
      value: {fileID: 21300000, guid: 42eeec033ab099f4bb5d5cf0f8385265, type: 3}
    - time: 1.6875
      value: {fileID: 21300000, guid: 3d02b91d705cd76459269a166ef432a4, type: 3}
    - time: 1.75
      value: {fileID: 21300000, guid: 7dfb9bd374e36ef498bb4b1de359a863, type: 3}
    - time: 1.8125
      value: {fileID: 21300000, guid: fd51311c1cb244a42b8e6da22160b472, type: 3}
    - time: 1.875
      value: {fileID: 21300000, guid: 0325e80517ec0b64e8c7af1b0b8028c1, type: 3}
    - time: 1.9375
      value: {fileID: 21300000, guid: a27f32c8ec95b2549ac795241f30920d, type: 3}
    - time: 2.5625
      value: {fileID: 21300000, guid: 08d04b0af8ddf5c478a34b53623dca51, type: 3}
    - time: 2.625
      value: {fileID: 21300000, guid: 83bdb130caf442d43a356ed698a546a1, type: 3}
    - time: 2.6875
      value: {fileID: 21300000, guid: 8cc86391dda0646499c55910c75ea497, type: 3}
    - time: 2.875
      value: {fileID: 21300000, guid: e4a8153311698a246a2c236506a47f61, type: 3}
    - time: 2.9375
      value: {fileID: 21300000, guid: 6a28658d260c3d742955fa991f1fae90, type: 3}
    - time: 3
      value: {fileID: 21300000, guid: d3efb640224e4c14ebef8dbaf96dd0e2, type: 3}
    attribute: m_Sprite
    path: 
    classID: 212
    script: {fileID: 0}
  m_SampleRate: 16
  m_WrapMode: 0
  m_Bounds:
    m_Center: {x: 0, y: 0, z: 0}
    m_Extent: {x: 0, y: 0, z: 0}
  m_ClipBindingConstant:
    genericBindings:
    - path: 0
      attribute: 0
      script: {fileID: 0}
      classID: 212
      customType: 23
      isPPtrCurve: 1
    pptrCurveMapping:
    - {fileID: 21300000, guid: c02656e8e98325a4bae78427eae5c235, type: 3}
    - {fileID: 21300002, guid: c02656e8e98325a4bae78427eae5c235, type: 3}
    - {fileID: 21300004, guid: c02656e8e98325a4bae78427eae5c235, type: 3}
    - {fileID: 21300006, guid: c02656e8e98325a4bae78427eae5c235, type: 3}
    - {fileID: 21300008, guid: c02656e8e98325a4bae78427eae5c235, type: 3}
    - {fileID: 21300010, guid: c02656e8e98325a4bae78427eae5c235, type: 3}
    - {fileID: 21300012, guid: c02656e8e98325a4bae78427eae5c235, type: 3}
    - {fileID: 21300014, guid: c02656e8e98325a4bae78427eae5c235, type: 3}
    - {fileID: 21300016, guid: c02656e8e98325a4bae78427eae5c235, type: 3}
    - {fileID: 21300018, guid: c02656e8e98325a4bae78427eae5c235, type: 3}
    - {fileID: 21300020, guid: c02656e8e98325a4bae78427eae5c235, type: 3}
    - {fileID: 21300022, guid: c02656e8e98325a4bae78427eae5c235, type: 3}
    - {fileID: 21300024, guid: c02656e8e98325a4bae78427eae5c235, type: 3}
    - {fileID: 21300026, guid: c02656e8e98325a4bae78427eae5c235, type: 3}
    - {fileID: 21300028, guid: c02656e8e98325a4bae78427eae5c235, type: 3}
    - {fileID: 21300030, guid: c02656e8e98325a4bae78427eae5c235, type: 3}
    - {fileID: 21300032, guid: c02656e8e98325a4bae78427eae5c235, type: 3}
    - {fileID: 21300000, guid: d9f9918442246c54b849763e6e4df3f0, type: 3}
    - {fileID: 21300000, guid: c4f4fc9e2ebba2d4ea599707ca2637de, type: 3}
    - {fileID: 21300000, guid: 42eeec033ab099f4bb5d5cf0f8385265, type: 3}
    - {fileID: 21300000, guid: 3d02b91d705cd76459269a166ef432a4, type: 3}
    - {fileID: 21300000, guid: 7dfb9bd374e36ef498bb4b1de359a863, type: 3}
    - {fileID: 21300000, guid: fd51311c1cb244a42b8e6da22160b472, type: 3}
    - {fileID: 21300000, guid: 0325e80517ec0b64e8c7af1b0b8028c1, type: 3}
    - {fileID: 21300000, guid: a27f32c8ec95b2549ac795241f30920d, type: 3}
    - {fileID: 21300000, guid: 08d04b0af8ddf5c478a34b53623dca51, type: 3}
    - {fileID: 21300000, guid: 83bdb130caf442d43a356ed698a546a1, type: 3}
    - {fileID: 21300000, guid: 8cc86391dda0646499c55910c75ea497, type: 3}
    - {fileID: 21300000, guid: e4a8153311698a246a2c236506a47f61, type: 3}
    - {fileID: 21300000, guid: 6a28658d260c3d742955fa991f1fae90, type: 3}
    - {fileID: 21300000, guid: d3efb640224e4c14ebef8dbaf96dd0e2, type: 3}
  m_AnimationClipSettings:
    serializedVersion: 2
    m_AdditiveReferencePoseClip: {fileID: 0}
    m_AdditiveReferencePoseTime: 0
    m_StartTime: 0
    m_StopTime: 3.0625
    m_OrientationOffsetY: 0
    m_Level: 0
    m_CycleOffset: 0
    m_HasAdditiveReferencePose: 0
    m_LoopTime: 1
    m_LoopBlend: 0
    m_LoopBlendOrientation: 0
    m_LoopBlendPositionY: 0
    m_LoopBlendPositionXZ: 0
    m_KeepOriginalOrientation: 0
    m_KeepOriginalPositionY: 1
    m_KeepOriginalPositionXZ: 0
    m_HeightFromFeet: 0
    m_Mirror: 0
  m_EditorCurves: []
  m_EulerEditorCurves: []
  m_HasGenericRootTransform: 0
  m_HasMotionFloatCurves: 0
  m_GenerateMotionCurves: 0
  m_Events:
  - time: 0
    functionName: turretWakeUp
    data: 
    objectReferenceParameter: {fileID: 0}
    floatParameter: 0
    intParameter: 0
    messageOptions: 0
  - time: 3
    functionName: turretWakeUpFinish
    data: 
    objectReferenceParameter: {fileID: 0}
    floatParameter: 0
    intParameter: 0
    messageOptions: 0
