%YAML 1.1
%TAG !u! tag:unity3d.com,2011:
--- !u!1045 &1
EditorBuildSettings:
  m_ObjectHideFlags: 0
  serializedVersion: 2
  m_Scenes:
  - enabled: 0
    path: Assets/Platformer_Unity.unity
  - enabled: 1
    path: Assets/Menu.unity
  - enabled: 1
    path: Assets/Main_Level.unity
  - enabled: 1
    path: Assets/Demo_Level.unity
