%YAML 1.1
%TAG !u! tag:unity3d.com,2011:
--- !u!78 &1
TagManager:
  serializedVersion: 2
  tags:
  - Item
  - Dangerous
  - Smelly
  - Fire
  - Bullet
  - Enemy
  - GM
  - Spike
  - EnemyUFO
  - Environment
  - Platform
  layers:
  - Default
  - TransparentFX
  - Ignore Raycast
  - 
  - Water
  - UI
  - 
  - 
  - Menu Items
  - Environment
  - Background
  - Player
  - Player Projectile
  - Enemy
  - Trap
  - Obstacle
  - Enemy Projectile
  - Flying Enemy
  - Platform
  - 
  - 
  - 
  - 
  - 
  - 
  - 
  - 
  - 
  - 
  - 
  - 
  - 
  m_SortingLayers:
  - name: Background
    uniqueID: 1093696345
    locked: 1
  - name: Default
    uniqueID: 0
    locked: 0
  - name: Foreground
    uniqueID: 1859086223
    locked: 0
  - name: Characters
    uniqueID: 3940858523
    locked: 0
  - name: UI
    uniqueID: 771169021
    locked: 0
